…
```r
##Make tbl_df of activity data 
activity_tbl <- tbl_df(activity_data)
##Group activty data by date using group_by() from dplyr
group_data <-group_by(activity_tbl,date)
##Calculate total steps taken daily
total_steps <- summarize(group_data,steps=sum(steps))
total_steps
```

```
## # A tibble: 61 x 2
##          date steps
##        <fctr> <int>
##  1 2012-10-01    NA
##  2 2012-10-02   126
##  3 2012-10-03 11352
##  4 2012-10-04 12116
##  5 2012-10-05 13294
##  6 2012-10-06 15420
##  7 2012-10-07 11015
##  8 2012-10-08    NA
##  9 2012-10-09 12811
## 10 2012-10-10  9900
## # ... with 51 more rows
```
…
###Calculate total number of steps taken daily for new data table

```r
##Create tbl_df of new data frame 
activity_tbl2 <- tbl_df(new_tbl)
##Group data using group_by from dplyr
group_data2 <- group_by(activity_tbl2,date)
##Calculate total steps taken daily
daily_steps2 <- summarize(group_data2,steps=sum(steps))
daily_steps2
```

```
## # A tibble: 61 x 2
##          date    steps
##        <fctr>    <dbl>
##  1 2012-10-01 10766.19
##  2 2012-10-02   126.00
##  3 2012-10-03 11352.00
##  4 2012-10-04 12116.00
##  5 2012-10-05 13294.00
##  6 2012-10-06 15420.00
##  7 2012-10-07 11015.00
##  8 2012-10-08 10766.19
##  9 2012-10-09 12811.00
## 10 2012-10-10  9900.00
## # ... with 51 more rows
```
…
